<?xml version="1.0" encoding="UTF-8"?>
<robot generator="Robot 7.1.1 (Python 3.13.0 on win32)" generated="2024-12-18T15:30:29.941753" rpa="false" schemaversion="5">
<suite id="s1" name="TC017" source="C:\Users\niri\PycharmProjects\TestProject001\Testcases\RestAPITesting\TC017.robot">
<test id="s1-t1" name="TC_017 Get Request with Parameters" line="13">
<kw name="Create Session" owner="RequestsLibrary">
<msg time="2024-12-18T15:30:30.378943" level="INFO">Creating Session using : alias=Get_Param, url=https://reqres.in, headers={},                     cookies={}, auth=None, timeout=None, proxies=None, verify=False,                     debug=0 </msg>
<arg>Get_Param</arg>
<arg>${Base_URL}</arg>
<doc>Create Session: create a HTTP session to a server</doc>
<status status="PASS" start="2024-12-18T15:30:30.378779" elapsed="0.000313"/>
</kw>
<kw name="Create Dictionary" owner="BuiltIn">
<msg time="2024-12-18T15:30:30.379594" level="INFO">${param} = {'page': '2'}</msg>
<var>${param}</var>
<arg>page=2</arg>
<doc>Creates and returns a dictionary based on the given ``items``.</doc>
<status status="PASS" start="2024-12-18T15:30:30.379392" elapsed="0.000224"/>
</kw>
<kw name="Get Request" owner="RequestsLibrary">
<msg time="2024-12-18T15:30:30.379934" level="WARN">Keyword 'RequestsLibrary.Get Request' is deprecated. Please use `GET On Session` instead.</msg>
<msg time="2024-12-18T15:30:30.524004" level="INFO">GET Request : url=https://reqres.in/api/users?page=2 
 path_url=/api/users?page=2 
 headers={'User-Agent': 'python-requests/2.32.3', 'Accept-Encoding': 'gzip, deflate', 'Accept': '*/*', 'Connection': 'keep-alive'} 
 body=None 
 </msg>
<msg time="2024-12-18T15:30:30.524130" level="INFO">GET Response : url=https://reqres.in/api/users?page=2 
 status=200, reason=OK 
 headers={'Date': 'Wed, 18 Dec 2024 14:30:30 GMT', 'Content-Type': 'application/json; charset=utf-8', 'Transfer-Encoding': 'chunked', 'Connection': 'keep-alive', 'Report-To': '{"group":"heroku-nel","max_age":3600,"endpoints":[{"url":"https://nel.heroku.com/reports?ts=1734484946&amp;sid=c4c9725f-1ab0-44d8-820f-430df2718e11&amp;s=6I2JWuKjEYkFde60N%2FYisGv3N7NNYP8N8lqrCaznIzE%3D"}]}', 'Reporting-Endpoints': 'heroku-nel=https://nel.heroku.com/reports?ts=1734484946&amp;sid=c4c9725f-1ab0-44d8-820f-430df2718e11&amp;s=6I2JWuKjEYkFde60N%2FYisGv3N7NNYP8N8lqrCaznIzE%3D', 'Nel': '{"report_to":"heroku-nel","max_age":3600,"success_fraction":0.005,"failure_fraction":0.05,"response_headers":["Via"]}', 'X-Powered-By': 'Express', 'Access-Control-Allow-Origin': '*', 'Etag': 'W/"440-ZjsmMKR8P3usr2uJZbOCGCxC3Uw"', 'Via': '1.1 vegur', 'Cache-Control': 'max-age=14400', 'CF-Cache-Status': 'HIT', 'Age': '1718', 'Vary': 'Accept-Encoding', 'Server': 'cloudflare', 'CF-RAY': '8f3fd9e8aa9b733a-BUD', 'Content-Encoding': 'gzip', 'server-timing': 'cfL4;desc="?proto=TCP&amp;rtt=10458&amp;min_rtt=10420&amp;rtt_var=3985&amp;sent=4&amp;recv=6&amp;lost=0&amp;retrans=0&amp;sent_bytes=2833&amp;recv_bytes=775&amp;delivery_rate=266144&amp;cwnd=251&amp;unsent_bytes=0&amp;cid=46c93dbddf5b9c0d&amp;ts=33&amp;x=0"'} 
 body={"page":2,"per_page":6,"total":12,"total_pages":2,"data":[{"id":7,"email":"michael.lawson@reqres.in","first_name":"Michael","last_name":"Lawson","avatar":"https://reqres.in/img/faces/7-image.jpg"},{"id":8,"email":"lindsay.ferguson@reqres.in","first_name":"Lindsay","last_name":"Ferguson","avatar":"https://reqres.in/img/faces/8-image.jpg"},{"id":9,"email":"tobias.funke@reqres.in","first_name":"Tobias","last_name":"Funke","avatar":"https://reqres.in/img/faces/9-image.jpg"},{"id":10,"email":"byron.fields@reqres.in","first_name":"Byron","last_name":"Fields","avatar":"https://reqres.in/img/faces/10-image.jpg"},{"id":11,"email":"george.edwards@reqres.in","first_name":"George","last_name":"Edwards","avatar":"https://reqres.in/img/faces/11-image.jpg"},{"id":12,"email":"rachel.howell@reqres.in","first_name":"Rachel","last_name":"Howell","avatar":"https://reqres.in/img/faces/12-image.jpg"}],"support":{"url":"https://contentcaddy.io?utm_source=reqres&amp;utm_medium=json&amp;utm_campaign=referral","text":"Tired of writing endless social media content? Let Content Caddy generate it for you."}} 
 </msg>
<msg time="2024-12-18T15:30:30.524192" level="INFO">C:\Users\niri\PycharmProjects\TestProject001\.venv\Lib\site-packages\urllib3\connectionpool.py:1099: InsecureRequestWarning: Unverified HTTPS request is being made to host 'reqres.in'. Adding certificate verification is strongly advised. See: https://urllib3.readthedocs.io/en/latest/advanced-usage.html#tls-warnings
  warnings.warn(</msg>
<msg time="2024-12-18T15:30:30.524722" level="INFO">${response} = &lt;Response [200]&gt;</msg>
<var>${response}</var>
<arg>Get_Param</arg>
<arg>/api/users</arg>
<arg>params=${param}</arg>
<doc>*DEPRECATED* Please use `GET On Session` instead.</doc>
<status status="PASS" start="2024-12-18T15:30:30.379912" elapsed="0.144839"/>
</kw>
<kw name="Log To Console" owner="BuiltIn">
<arg>${response.status_code}</arg>
<doc>Logs the given message to the console.</doc>
<status status="PASS" start="2024-12-18T15:30:30.525143" elapsed="0.000563"/>
</kw>
<kw name="Log To Console" owner="BuiltIn">
<msg time="2024-12-18T15:30:30.526468" level="FAIL">Resolving variable '${response.contentcd}' failed: AttributeError: 'Response' object has no attribute 'contentcd'</msg>
<arg>${response.contentcd}</arg>
<doc>Logs the given message to the console.</doc>
<status status="FAIL" start="2024-12-18T15:30:30.525940" elapsed="0.000563">Resolving variable '${response.contentcd}' failed: AttributeError: 'Response' object has no attribute 'contentcd'</status>
</kw>
<status status="FAIL" start="2024-12-18T15:30:30.377923" elapsed="0.148867">Resolving variable '${response.contentcd}' failed: AttributeError: 'Response' object has no attribute 'contentcd'</status>
</test>
<status status="FAIL" start="2024-12-18T15:30:29.942913" elapsed="0.584891"/>
</suite>
<statistics>
<total>
<stat pass="0" fail="1" skip="0">All Tests</stat>
</total>
<tag>
</tag>
<suite>
<stat pass="0" fail="1" skip="0" id="s1" name="TC017">TC017</stat>
</suite>
</statistics>
<errors>
<msg time="2024-12-18T15:30:30.379934" level="WARN">Keyword 'RequestsLibrary.Get Request' is deprecated. Please use `GET On Session` instead.</msg>
</errors>
</robot>
